[
{
        "name": "黄金影视软件在线更新",
        "list": [
        {
                "name": "官方Q群:2581727235",
                "url": "https://gitlab.com/lzc1021lzc/hjfggzs.hjys/-/raw/main/apk/IMG_20231004_163630.jpg",
                "icon": "https://gitlab.com/lzc1021lzc/hjfggzs.hjys/-/raw/main/apk/5j.png",
                  "version": "黄金分割工作室"
            }
            ]
            },
       {
        "name": "黄金影视软件在线更新程序",
        "list": [
            {
                "name": "手机最新版",
                "url": "https://gitlab.com/lzc1021lzc/hjfggzs.hjys/-/raw/main/apk/黄金影视.apk",
                "icon": "https://gitlab.com/lzc1021lzc/hjfggzs.hjys/-/raw/main/apk/下载.jpeg",
                  "version": "1.1.6"
            },
            {
                "name": "电视最新版",
                "url": "https://gitlab.com/lzc1021lzc/hjfggzs.hjys/-/raw/main/apk/黄金影视tv.apk",
                "icon": "https://gitlab.com/lzc1021lzc/hjfggzs.hjys/-/raw/main/apk/下载.jpeg",
                  "version": "1.1.6#2"
            },
            {
                "name": "下载器最新版",
                "url": "https://gitlab.com/lzc1021lzc/hjfggzs.hjys/-/raw/main/apk/黄金影视下载器1.1.0.apk",
                "icon": "https://gitlab.com/lzc1021lzc/hjfggzs.hjys/-/raw/main/apk/下载.jpeg",
                  "version": "1.1.0"
            },
            {
                "name": "文件储存区",
                "url": "https://gitlab.com/lzc1021lzc/hjfggzs.hjys/-/raw/main/apk/IMG_20231004_163630.jpg",
                "icon": "https://gitlab.com/lzc1021lzc/hjfggzs.hjys/-/raw/main/apk/IMG_20231215_011011.jpg",
                  "version": "Download"
            },
             {
                "name": "官方Q群",
                "url": "https://gitlab.com/lzc1021lzc/hjfggzs.hjys/-/raw/main/apk/IMG_20231004_163630.jpg",
                "icon": "https://gitlab.com/lzc1021lzc/hjfggzs.hjys/-/raw/main/apk/5j.png",
                  "version": "932753534"
            },
            {
                "name": "关于我们",
                "url": "http://d4b9937e.usa-vh-free-b.x-c.top/view.php/399dc01c74c2f9adec68e62c7242393a.mp4",
                "icon": "https://gitlab.com/lzc1021lzc/hjfggzs.hjys/-/raw/main/apk/userad2.jpg",
                  "version": "黄金分割工作室"
            }
        ]
    },
    {
        "name": "文件储存位置/storage/emulated/0/Download/",
        "list": [
        {
                "name": "请自行更新",
                "url": "https://gitlab.com/lzc1021lzc/hjfggzs.hjys/-/raw/main/apk/IMG_20231004_163630.jpg",
                "icon": "https://gitlab.com/lzc1021lzc/hjfggzs.hjys/-/raw/main/apk/5j.png",
                  "version": "黄金分割工作室"
            }
            ]
            }
]
